{
  "$schema": "http://json-schema.org/draft-07/schema#",
  "$comment": "This file is an implementation detail! Additional keys that are commonly used in KDE metadata files. This includes KCM and KPackage specific ones. Licensed under MIT, by Alexander Lohnau",
  "properties": {
    "X-KDE-OnlyShowOnQtPlatforms": {
      "type": "array",
      "items": {
        "type": "string"
      }
    },
    "X-KDE-System-Settings-Parent-Category": {
      "type": "string"
    },
    "X-KDE-KInfoCenter-Category": {
      "type": "string"
    },
    "X-KDE-Weight": {
      "type": "integer"
    },
    "Keywords": {
      "type": "string"
    },
    "X-KDE-Keywords": {
      "type": "string"
    },
    "KPackageStructure": {
      "type": "string",
      "pattern": "^\\w+/\\w+",
      "$comment": "Structure should consist of a namespace identifier and a resource identifier"
    },
    "X-KDE-Ordering": {
      "description": "Used in KWin",
      "type": "number"
    }
  }
}
