[
    "appstream://org.kde.alligator",
    "appstream://org.kde.angelfish",
    "appstream://org.kde.audiotube",
    "appstream://org.kde.kalk",
    "appstream://org.kde.calindori",
    "appstream://org.kde.kclock",
    "appstream://org.kde.elisa.desktop",
    "appstream://org.kde.gcompris.desktop",
    "appstream://org.kde.index.desktop",
    "appstream://im.kaidan.kaidan",
    "appstream://org.kde.kalendar",
    "appstream://org.kde.kalgebramobile",
    "appstream://org.kde.kasts",
    "appstream://org.kde.itinerary.desktop",
    "appstream://org.kde.keysmith",
    "appstream://org.kde.kirogi",
    "appstream://org.kde.koko",
    "appstream://org.kde.kongress",
    "appstream://org.kde.ktrip",
    "appstream://org.kde.neochat",
    "appstream://org.kde.okular.desktop",
    "appstream://org.kde.peruse",
    "appstream://org.kde.phonebook",
    "appstream://org.kde.pix.desktop",
    "appstream://org.kde.plasma.camera",
    "appstream://org.kde.plasmatube",
    "appstream://org.kde.krecroder",
    "appstream://org.kde.spacebar",
    "appstream://org.kde.vvave.desktop",
    "appstream://org.kde.kweather",
    "appstream://org.telegram.desktop",
    "appstream://io.github.rinigus.PureMaps.desktop"
]
